%YAML 1.1
%TAG !u! tag:unity3d.com,2011:
--- !u!114 &11400000
MonoBehaviour:
  m_ObjectHideFlags: 0
  m_PrefabParentObject: {fileID: 0}
  m_PrefabInternal: {fileID: 0}
  m_GameObject: {fileID: 0}
  m_Enabled: 1
  m_EditorHideFlags: 0
  m_Script: {fileID: -850728896, guid: 04aeca3f59e033b44ab044563fb806c9, type: 3}
  m_Name: ButtonBase
  m_EditorClassIdentifier: 
  json: '{"name":"Button","enabled":true,"visible":false,"margin":{"left":0,"top":0,"right":0,"bottom":0},"alignment":{"x":"Stretch","y":"Stretch"},"layoutType":"Free","width":80,"height":32,"depth":0,"breakBatch":false,"contentType":"Sprite","assetGUID":null,"color":{"r":0,"g":0,"b":0,"a":1},"text":null,"textAnchor":"UpperLeft","fontSize":16,"children":[{"name":"Shadow","enabled":true,"visible":true,"margin":{"left":-4,"top":-6,"right":-8,"bottom":-8},"alignment":{"x":"Stretch","y":"Stretch"},"layoutType":"Free","width":32,"height":32,"depth":1,"breakBatch":false,"contentType":"SlicedSprite","assetGUID":"eb2a5cc92a85b82469334e81314f51c7","color":{"r":0,"g":0,"b":0,"a":1},"text":null,"textAnchor":"UpperLeft","fontSize":16,"children":[]},{"name":"GUIElement","enabled":true,"visible":true,"margin":{"left":0,"top":0,"right":0,"bottom":0},"alignment":{"x":"Stretch","y":"Stretch"},"layoutType":"Free","width":32,"height":32,"depth":2,"breakBatch":false,"contentType":"SlicedSprite","assetGUID":"53b554c6b6a942d47ba76b3bd6e6e0cf","color":{"r":0.7764706,"g":0.8862745,"b":0.9254902,"a":1},"text":null,"textAnchor":"UpperLeft","fontSize":16,"children":[]}]}'
  serialized: "Root\r\n Name: Button\r\n Enabled: True\r\n Visible: False\r\n Margin\r\n
    \ Left: 0\r\n  Top: 0\r\n  Right: 0\r\n  Bottom: 0\r\n Alignment\r\n  x: 3\r\n
    \ y: 3\r\n LayoutType: 0\r\n Width: 80\r\n Height: 32\r\n Depth: 0\r\n BreakBatch:
    False\r\n ContentType: 0\r\n AssetGUID: \r\n Color\r\n  r: 0\r\n  g: 0\r\n  b:
    0\r\n  a: 1\r\n Text: \r\n TextAnchor: 0\r\n FontSize: 16\r\n ChildCount: 2\r\n
    0\r\n  Name: Shadow\r\n  Enabled: True\r\n  Visible: True\r\n  Margin\r\n   Left:
    -4\r\n   Top: -6\r\n   Right: -8\r\n   Bottom: -8\r\n  Alignment\r\n   x: 3\r\n
    \  y: 3\r\n  LayoutType: 0\r\n  Width: 32\r\n  Height: 32\r\n  Depth: 1\r\n  BreakBatch:
    False\r\n  ContentType: 1\r\n  AssetGUID: eb2a5cc92a85b82469334e81314f51c7\r\n
    \ Color\r\n   r: 0\r\n   g: 0\r\n   b: 0\r\n   a: 1\r\n  Text: \r\n  TextAnchor:
    0\r\n  FontSize: 16\r\n  ChildCount: 0\r\n 1\r\n  Name: GUIElement\r\n  Enabled:
    True\r\n  Visible: True\r\n  Margin\r\n   Left: 0\r\n   Top: 0\r\n   Right: 0\r\n
    \  Bottom: 0\r\n  Alignment\r\n   x: 3\r\n   y: 3\r\n  LayoutType: 0\r\n  Width:
    32\r\n  Height: 32\r\n  Depth: 2\r\n  BreakBatch: False\r\n  ContentType: 1\r\n
    \ AssetGUID: 53b554c6b6a942d47ba76b3bd6e6e0cf\r\n  Color\r\n   r: 0.7764706\r\n
    \  g: 0.8862745\r\n   b: 0.9254902\r\n   a: 1\r\n  Text: \r\n  TextAnchor: 0\r\n
    \ FontSize: 16\r\n  ChildCount: 0\r\n"
  data: "Root\r\n Name: Button\r\n Tag: \r\n Enabled: True\r\n Visible: False\r\n
    Margin\r\n  Left: 0\r\n  Top: 0\r\n  Right: 0\r\n  Bottom: 0\r\n Alignment\r\n
    \ x: 3\r\n  y: 3\r\n LayoutType: 0\r\n Width: 80\r\n Height: 32\r\n Depth: 0\r\n
    BreakBatch: False\r\n ContentType: 0\r\n Content\r\n  Color\r\n   r: 0\r\n   g:
    0\r\n   b: 0\r\n   a: 1\r\n AssetGUID: \r\n ChildCount: 2\r\n 0\r\n  Name: Shadow\r\n
    \ Tag: \r\n  Enabled: True\r\n  Visible: True\r\n  Margin\r\n   Left: -4\r\n   Top:
    -6\r\n   Right: -8\r\n   Bottom: -8\r\n  Alignment\r\n   x: 3\r\n   y: 3\r\n  LayoutType:
    0\r\n  Width: 32\r\n  Height: 32\r\n  Depth: 1\r\n  BreakBatch: False\r\n  ContentType:
    1\r\n  Content\r\n   Color\r\n    r: 0\r\n    g: 0\r\n    b: 0\r\n    a: 255\r\n
    \ AssetGUID: eb2a5cc92a85b82469334e81314f51c7\r\n  ChildCount: 0\r\n 1\r\n  Name:
    GUIElement\r\n  Tag: \r\n  Enabled: True\r\n  Visible: True\r\n  Margin\r\n   Left:
    0\r\n   Top: 0\r\n   Right: 0\r\n   Bottom: 0\r\n  Alignment\r\n   x: 3\r\n   y:
    3\r\n  LayoutType: 0\r\n  Width: 32\r\n  Height: 32\r\n  Depth: 2\r\n  BreakBatch:
    False\r\n  ContentType: 1\r\n  Content\r\n   Color\r\n    r: 255\r\n    g: 255\r\n
    \   b: 255\r\n    a: 255\r\n  AssetGUID: 53b554c6b6a942d47ba76b3bd6e6e0cf\r\n
    \ ChildCount: 0\r\n"
  m_assetReferences:
  - guid: eb2a5cc92a85b82469334e81314f51c7
    asset: {fileID: 21300000, guid: eb2a5cc92a85b82469334e81314f51c7, type: 3}
  - guid: 53b554c6b6a942d47ba76b3bd6e6e0cf
    asset: {fileID: 21300000, guid: 53b554c6b6a942d47ba76b3bd6e6e0cf, type: 3}
