%YAML 1.1
%TAG !u! tag:unity3d.com,2011:
--- !u!114 &11400000
MonoBehaviour:
  m_ObjectHideFlags: 0
  m_PrefabParentObject: {fileID: 0}
  m_PrefabInternal: {fileID: 0}
  m_GameObject: {fileID: 0}
  m_Enabled: 1
  m_EditorHideFlags: 0
  m_Script: {fileID: -850728896, guid: 04aeca3f59e033b44ab044563fb806c9, type: 3}
  m_Name: NewGUIAsset1
  m_EditorClassIdentifier: 
  json: '{"name":"Root","enabled":true,"visible":false,"margin":{"left":0,"top":0,"right":0,"bottom":0},"alignment":{"x":"Stretch","y":"Stretch"},"layoutType":"Free","width":128,"height":128,"depth":0,"breakBatch":false,"contentType":"Sprite","assetGUID":"","color":{"r":1,"g":1,"b":1,"a":1},"text":"","textAnchor":"UpperLeft","fontSize":16,"children":[{"name":"GUIElement","enabled":true,"visible":true,"margin":{"left":32,"top":44,"right":0,"bottom":0},"alignment":{"x":"Left","y":"Top"},"layoutType":"Free","width":532,"height":480,"depth":0,"breakBatch":true,"contentType":"GUIAsset","assetGUID":"521e29bcc99b77a4fbd185bb59110519","color":{"r":1,"g":1,"b":1,"a":1},"text":"","textAnchor":"UpperLeft","fontSize":16,"children":[]},{"name":"GUIElement","enabled":true,"visible":true,"margin":{"left":355,"top":71,"right":41,"bottom":0},"alignment":{"x":"Left","y":"Top"},"layoutType":"Free","width":411,"height":427,"depth":10,"breakBatch":true,"contentType":"GUIAsset","assetGUID":"521e29bcc99b77a4fbd185bb59110519","color":{"r":1,"g":1,"b":1,"a":1},"text":"","textAnchor":"UpperLeft","fontSize":16,"children":[]}]}'
  serialized: "Root\r\n Name: Root\r\n Enabled: True\r\n Visible: False\r\n Margin\r\n
    \ Left: 0\r\n  Top: 0\r\n  Right: 0\r\n  Bottom: 0\r\n Alignment\r\n  x: 3\r\n
    \ y: 3\r\n LayoutType: 0\r\n Width: 128\r\n Height: 128\r\n Depth: 0\r\n BreakBatch:
    False\r\n ContentType: 0\r\n AssetGUID: \r\n Color\r\n  r: 1\r\n  g: 1\r\n  b:
    1\r\n  a: 1\r\n Text: \r\n TextAnchor: 0\r\n FontSize: 16\r\n ChildCount: 2\r\n
    0\r\n  Name: GUIElement\r\n  Enabled: True\r\n  Visible: True\r\n  Margin\r\n
    \  Left: 32\r\n   Top: 44\r\n   Right: 0\r\n   Bottom: 0\r\n  Alignment\r\n   x:
    0\r\n   y: 0\r\n  LayoutType: 0\r\n  Width: 532\r\n  Height: 480\r\n  Depth: 0\r\n
    \ BreakBatch: True\r\n  ContentType: 3\r\n  AssetGUID: 521e29bcc99b77a4fbd185bb59110519\r\n
    \ Color\r\n   r: 1\r\n   g: 1\r\n   b: 1\r\n   a: 1\r\n  Text: \r\n  TextAnchor:
    0\r\n  FontSize: 16\r\n  ChildCount: 0\r\n 1\r\n  Name: GUIElement\r\n  Enabled:
    True\r\n  Visible: True\r\n  Margin\r\n   Left: 355\r\n   Top: 71\r\n   Right:
    41\r\n   Bottom: 0\r\n  Alignment\r\n   x: 0\r\n   y: 0\r\n  LayoutType: 0\r\n
    \ Width: 411\r\n  Height: 427\r\n  Depth: 10\r\n  BreakBatch: True\r\n  ContentType:
    3\r\n  AssetGUID: 521e29bcc99b77a4fbd185bb59110519\r\n  Color\r\n   r: 1\r\n   g:
    1\r\n   b: 1\r\n   a: 1\r\n  Text: \r\n  TextAnchor: 0\r\n  FontSize: 16\r\n  ChildCount:
    0\r\n"
  data: "Root\r\n Name: Root\r\n Tag: \r\n Enabled: True\r\n Visible: False\r\n Margin\r\n
    \ Left: 0\r\n  Top: 0\r\n  Right: 0\r\n  Bottom: 0\r\n Alignment\r\n  x: 3\r\n
    \ y: 3\r\n LayoutType: 0\r\n Width: 128\r\n Height: 128\r\n Depth: 0\r\n BreakBatch:
    False\r\n ContentType: 0\r\n Content\r\n  Color\r\n   r: 0\r\n   g: 0\r\n   b:
    0\r\n   a: 0\r\n AssetGUID: \r\n ChildCount: 2\r\n 0\r\n  Name: GUIElement\r\n
    \ Tag: \r\n  Enabled: True\r\n  Visible: True\r\n  Margin\r\n   Left: 79\r\n   Top:
    28\r\n   Right: 0\r\n   Bottom: 0\r\n  Alignment\r\n   x: 0\r\n   y: 0\r\n  LayoutType:
    0\r\n  Width: 464\r\n  Height: 433\r\n  Depth: 0\r\n  BreakBatch: False\r\n  ContentType:
    3\r\n  Content\r\n  AssetGUID: 521e29bcc99b77a4fbd185bb59110519\r\n  ChildCount:
    0\r\n 1\r\n  Name: GUIElement\r\n  Tag: \r\n  Enabled: True\r\n  Visible: True\r\n
    \ Margin\r\n   Left: 252\r\n   Top: 40\r\n   Right: 0\r\n   Bottom: 0\r\n  Alignment\r\n
    \  x: 0\r\n   y: 0\r\n  LayoutType: 0\r\n  Width: 558\r\n  Height: 487\r\n  Depth:
    10\r\n  BreakBatch: True\r\n  ContentType: 3\r\n  Content\r\n  AssetGUID: 521e29bcc99b77a4fbd185bb59110519\r\n
    \ ChildCount: 0\r\n"
  m_assetReferences:
  - guid: 521e29bcc99b77a4fbd185bb59110519
    asset: {fileID: 11400000, guid: 521e29bcc99b77a4fbd185bb59110519, type: 2}
