%YAML 1.1
%TAG !u! tag:unity3d.com,2011:
--- !u!114 &11400000
MonoBehaviour:
  m_ObjectHideFlags: 0
  m_PrefabParentObject: {fileID: 0}
  m_PrefabInternal: {fileID: 0}
  m_GameObject: {fileID: 0}
  m_Enabled: 1
  m_EditorHideFlags: 0
  m_Script: {fileID: -850728896, guid: 04aeca3f59e033b44ab044563fb806c9, type: 3}
  m_Name: TopBar
  m_EditorClassIdentifier: 
  json: 
  serialized: 
  data: "Root\r\n Name: Root\r\n Tag: \r\n Enabled: True\r\n Visible: False\r\n Margin\r\n
    \ Left: 0\r\n  Top: 0\r\n  Right: 0\r\n  Bottom: 0\r\n Alignment\r\n  x: 3\r\n
    \ y: 0\r\n LayoutType: 0\r\n Width: 128\r\n Height: 100\r\n Depth: 0\r\n BreakBatch:
    False\r\n ContentType: 1\r\n Content\r\n  Color\r\n   r: 0\r\n   g: 0\r\n   b:
    0\r\n   a: 0\r\n AssetGUID: \r\n ChildCount: 2\r\n 0\r\n  Name: Shadow\r\n  Tag:
    \r\n  Enabled: True\r\n  Visible: True\r\n  Margin\r\n   Left: 0\r\n   Top: 0\r\n
    \  Right: 0\r\n   Bottom: 0\r\n  Alignment\r\n   x: 3\r\n   y: 3\r\n  LayoutType:
    0\r\n  Width: 32\r\n  Height: 32\r\n  Depth: 0\r\n  BreakBatch: False\r\n  ContentType:
    1\r\n  Content\r\n   Color\r\n    r: 0\r\n    g: 0\r\n    b: 0\r\n    a: 1\r\n
    \ AssetGUID: eb2a5cc92a85b82469334e81314f51c7\r\n  ChildCount: 0\r\n 1\r\n  Name:
    Background\r\n  Tag: \r\n  Enabled: True\r\n  Visible: True\r\n  Margin\r\n   Left:
    10\r\n   Top: 10\r\n   Right: 10\r\n   Bottom: 10\r\n  Alignment\r\n   x: 3\r\n
    \  y: 3\r\n  LayoutType: 0\r\n  Width: 32\r\n  Height: 32\r\n  Depth: 0\r\n  BreakBatch:
    False\r\n  ContentType: 1\r\n  Content\r\n   Color\r\n    r: 0\r\n    g: 0\r\n
    \   b: 0\r\n    a: 1\r\n  AssetGUID: \r\n  ChildCount: 1\r\n  0\r\n   Name: Content\r\n
    \  Tag: \r\n   Enabled: True\r\n   Visible: True\r\n   Margin\r\n    Left: 10\r\n
    \   Top: 10\r\n    Right: 10\r\n    Bottom: 10\r\n   Alignment\r\n    x: 3\r\n
    \   y: 3\r\n   LayoutType: 1\r\n   Width: 32\r\n   Height: 32\r\n   Depth: 0\r\n
    \  BreakBatch: False\r\n   ContentType: 0\r\n   Content\r\n    Color\r\n     r:
    0\r\n     g: 0\r\n     b: 0\r\n     a: 0\r\n   AssetGUID: \r\n   ChildCount: 2\r\n
    \  0\r\n    Name: Icon\r\n    Tag: \r\n    Enabled: True\r\n    Visible: True\r\n
    \   Margin\r\n     Left: 0\r\n     Top: 0\r\n     Right: 0\r\n     Bottom: 0\r\n
    \   Alignment\r\n     x: 0\r\n     y: 2\r\n    LayoutType: 0\r\n    Width: 64\r\n
    \   Height: 64\r\n    Depth: 0\r\n    BreakBatch: False\r\n    ContentType: 0\r\n
    \   Content\r\n     Color\r\n      r: 0\r\n      g: 0\r\n      b: 0\r\n      a:
    1\r\n    AssetGUID: \r\n    ChildCount: 2\r\n    0\r\n     Name: GUIElement\r\n
    \    Tag: \r\n     Enabled: True\r\n     Visible: True\r\n     Margin\r\n      Left:
    4\r\n      Top: 4\r\n      Right: 4\r\n      Bottom: 4\r\n     Alignment\r\n      x:
    3\r\n      y: 3\r\n     LayoutType: 0\r\n     Width: 32\r\n     Height: 32\r\n
    \    Depth: 0\r\n     BreakBatch: False\r\n     ContentType: 0\r\n     Content\r\n
    \     Color\r\n       r: 0\r\n       g: 0\r\n       b: 0\r\n       a: 1\r\n     AssetGUID:
    \r\n     ChildCount: 0\r\n    1\r\n     Name: GUIElement\r\n     Tag: \r\n     Enabled:
    True\r\n     Visible: True\r\n     Margin\r\n      Left: 4\r\n      Top: 4\r\n
    \     Right: 4\r\n      Bottom: 4\r\n     Alignment\r\n      x: 3\r\n      y:
    3\r\n     LayoutType: 0\r\n     Width: 32\r\n     Height: 32\r\n     Depth: 0\r\n
    \    BreakBatch: False\r\n     ContentType: 0\r\n     Content\r\n      Color\r\n
    \      r: 1\r\n       g: 1\r\n       b: 1\r\n       a: 1\r\n     AssetGUID: b24489f8cee36d242afb13cb1f12b2c6\r\n
    \    ChildCount: 0\r\n   1\r\n    Name: Info\r\n    Tag: \r\n    Enabled: True\r\n
    \   Visible: True\r\n    Margin\r\n     Left: 10\r\n     Top: 0\r\n     Right:
    0\r\n     Bottom: 0\r\n    Alignment\r\n     x: 3\r\n     y: 2\r\n    LayoutType:
    4\r\n    Width: 200\r\n    Height: 64\r\n    Depth: 0\r\n    BreakBatch: False\r\n
    \   ContentType: 0\r\n    Content\r\n     Color\r\n      r: 0\r\n      g: 0\r\n
    \     b: 0\r\n      a: 0\r\n    AssetGUID: \r\n    ChildCount: 3\r\n    0\r\n
    \    Name: Name\r\n     Tag: \r\n     Enabled: True\r\n     Visible: True\r\n
    \    Margin\r\n      Left: 0\r\n      Top: 0\r\n      Right: 0\r\n      Bottom:
    0\r\n     Alignment\r\n      x: 3\r\n      y: 2\r\n     LayoutType: 0\r\n     Width:
    200\r\n     Height: 16\r\n     Depth: 0\r\n     BreakBatch: False\r\n     ContentType:
    2\r\n     Content\r\n      Color\r\n       r: 1\r\n       g: 1\r\n       b: 1\r\n
    \      a: 1\r\n      Text: [DEV]tebeer\r\n      TextAnchor: 3\r\n      FontSize:
    20\r\n     AssetGUID: a6e89b51c8e9d484d9b0b4444933041a\r\n     ChildCount: 0\r\n
    \   1\r\n     Name: GUIElement\r\n     Tag: \r\n     Enabled: True\r\n     Visible:
    True\r\n     Margin\r\n      Left: 0\r\n      Top: 0\r\n      Right: 0\r\n      Bottom:
    0\r\n     Alignment\r\n      x: 3\r\n      y: 2\r\n     LayoutType: 0\r\n     Width:
    32\r\n     Height: 8\r\n     Depth: 0\r\n     BreakBatch: False\r\n     ContentType:
    0\r\n     Content\r\n      Color\r\n       r: 0\r\n       g: 0\r\n       b: 0\r\n
    \      a: 1\r\n     AssetGUID: \r\n     ChildCount: 0\r\n    2\r\n     Name: Name\r\n
    \    Tag: \r\n     Enabled: True\r\n     Visible: True\r\n     Margin\r\n      Left:
    0\r\n      Top: 0\r\n      Right: 0\r\n      Bottom: 0\r\n     Alignment\r\n      x:
    3\r\n      y: 2\r\n     LayoutType: 0\r\n     Width: 200\r\n     Height: 16\r\n
    \    Depth: 0\r\n     BreakBatch: False\r\n     ContentType: 2\r\n     Content\r\n
    \     Color\r\n       r: 0\r\n       g: 0\r\n       b: 0\r\n       a: 1\r\n      Text:
    LVL. 14\r\n      TextAnchor: 0\r\n      FontSize: 16\r\n     AssetGUID: a6e89b51c8e9d484d9b0b4444933041a\r\n
    \    ChildCount: 0\r\n"
  m_assetReferences:
  - guid: eb2a5cc92a85b82469334e81314f51c7
    asset: {fileID: 21300000, guid: eb2a5cc92a85b82469334e81314f51c7, type: 3}
  - guid: b24489f8cee36d242afb13cb1f12b2c6
    asset: {fileID: 21300000, guid: b24489f8cee36d242afb13cb1f12b2c6, type: 3}
  - guid: a6e89b51c8e9d484d9b0b4444933041a
    asset: {fileID: 12800000, guid: a6e89b51c8e9d484d9b0b4444933041a, type: 3}
