%YAML 1.1
%TAG !u! tag:unity3d.com,2011:
--- !u!114 &11400000
MonoBehaviour:
  m_ObjectHideFlags: 0
  m_PrefabParentObject: {fileID: 0}
  m_PrefabInternal: {fileID: 0}
  m_GameObject: {fileID: 0}
  m_Enabled: 1
  m_EditorHideFlags: 0
  m_Script: {fileID: -850728896, guid: 04aeca3f59e033b44ab044563fb806c9, type: 3}
  m_Name: UserName
  m_EditorClassIdentifier: 
  json: 
  serialized: 
  data: "Root\r\n Name: Root\r\n Tag: \r\n Enabled: True\r\n Visible: False\r\n Margin\r\n
    \ Left: 4\r\n  Top: 4\r\n  Right: 4\r\n  Bottom: 4\r\n Alignment\r\n  x: 3\r\n
    \ y: 3\r\n LayoutType: 0\r\n Width: 128\r\n Height: 128\r\n Depth: 0\r\n BreakBatch:
    False\r\n ContentType: 0\r\n Content\r\n  Color\r\n   r: 255\r\n   g: 255\r\n
    \  b: 255\r\n   a: 83\r\n AssetGUID: \r\n ChildCount: 2\r\n 0\r\n  Name: Base\r\n
    \ Tag: \r\n  Enabled: True\r\n  Visible: True\r\n  Margin\r\n   Left: 0\r\n   Top:
    0\r\n   Right: 0\r\n   Bottom: 0\r\n  Alignment\r\n   x: 3\r\n   y: 3\r\n  LayoutType:
    0\r\n  Width: 32\r\n  Height: 32\r\n  Depth: 0\r\n  BreakBatch: False\r\n  ContentType:
    3\r\n  Content\r\n  AssetGUID: b4caf91364d8fbc428443ab1177b1e8d\r\n  ChildCount:
    0\r\n 1\r\n  Name: Name\r\n  Tag: Name\r\n  Enabled: True\r\n  Visible: True\r\n
    \ Margin\r\n   Left: 10\r\n   Top: 0\r\n   Right: 0\r\n   Bottom: 0\r\n  Alignment\r\n
    \  x: 3\r\n   y: 2\r\n  LayoutType: 0\r\n  Width: 32\r\n  Height: 32\r\n  Depth:
    0\r\n  BreakBatch: False\r\n  ContentType: 2\r\n  Content\r\n   Color\r\n    r:
    255\r\n    g: 255\r\n    b: 255\r\n    a: 255\r\n   Text: Username\r\n   TextAnchor:
    3\r\n   FontSize: 16\r\n  AssetGUID: 39377d1756247fa4d9576edf21a641fa\r\n  ChildCount:
    0\r\n"
  m_assetReferences:
  - guid: b4caf91364d8fbc428443ab1177b1e8d
    asset: {fileID: 11400000, guid: b4caf91364d8fbc428443ab1177b1e8d, type: 2}
  - guid: 39377d1756247fa4d9576edf21a641fa
    asset: {fileID: 12800000, guid: 39377d1756247fa4d9576edf21a641fa, type: 3}
